{
  "project_info": {
    "project_number": "389139377230",
    "project_id": "hotelbookingapp-d6cf3",
    "storage_bucket": "hotelbookingapp-d6cf3.appspot.com"
  },
  "client": [
    {
      "client_info": {
        "mobilesdk_app_id": "1:389139377230:android:7eebc03708d090c975671f",
        "android_client_info": {
          "package_name": "com.hotelbookingapp"
        }
      },
      "oauth_client": [
        {
          "client_id": "389139377230-k5u46rbk3ubkuo9qh9b2vijioit1gmef.apps.googleusercontent.com",
          "client_type": 3
        }
      ],
      "api_key": [
        {
          "current_key": "AIzaSyAAP4IfugMfDHqjBzkvMHW47l66SR661ks"
        }
      ],
      "services": {
        "appinvite_service": {
          "other_platform_oauth_client": [
            {
              "client_id": "389139377230-k5u46rbk3ubkuo9qh9b2vijioit1gmef.apps.googleusercontent.com",
              "client_type": 3
            }
          ]
        }
      }
    }
  ],
  "configuration_version": "1"
}